      -5 
    -1 
      2 
  4 
        6 
      8 
        40 
    45 
      78 
        123 
4
4 -1 -5 2 45 8 6 40 78 123 
-5 -1 2 4 6 8 40 45 78 123 
-5 2 -1 6 40 8 123 78 45 4 
-1 
Elementul nu a fost gasit!
      -5 
    -1 
      2 
  4 
      40 
    45 
      78 
        123 
    1 
  10 
    100 
      10000 
      -5 
    -1 
        1 
      2 
  4 
        10 
      40 
    45 
        78 
      100 
        123 
          10000 
