1 3 7 6 9 
1 3 10 7 6 9 
0 1 3 10 7 6 9 
0 1 3 10 7 6 9 7 
Nu s-a pus elementul
0 1 3 10 7 6 9 7 
6 
Elementul luat este NULL!
0 1 3 10 7 6 9 7 
0 1 3 10 7 9 7 
Nu s-a sters elementul
0 1 3 10 7 9 7 
Nu s-a sters elementul
0 1 3 10 7 9 7 
4
Elementul nu a fost gasit!
0 1 3 10 7 9 7 
0 1 3 7 7 9 10 
100 200 300 
0 1 3 7 7 9 10 100 200 300 
