        -5 
      -1 
    2 
  4 
    6 
        8 
          40 
      45 
        78 
          123 
  12 
    21 
        120 
      121 
        210 
12 21 121 120 210 
-5 -1 2 4 6 8 40 45 78 123 
123 
        -5 
      -1 
    2 
  4 
    6 
        8 
          40 
      45 
        78 
5
        -5 
      -1 
    2 
  4 
    6 
        8 
            12 
              21 
          40 
      45 
        78 
          120 
            121 
              210 
  12 
    21 
        120 
      121 
        210 
