  a 
      e 
    f 
      g 
        i 
          j 
                l 
              p 
            r 
              w 
8
a f e g i j r p l w 
a e f g i j l p r w 
e l p w r j i g f a 
a 
Elementul nu a fost gasit!
  a 
      e 
    f 
      g 
        i 
          j 
            w 
